Title: Performance Collective

----

Authors: pauline-richon

----

Materials: 

----

Tags: 

----

About: 

----

In-program: true

----

Time: 14h00

----

Duration: 

----

Event-type: 0, 1

----

Medias: 

----

Type: 1